{
    "processor": [
        {
            "id": "AS_Inside_100",
            "name": "HAP-ST-F00 Est\u00e1ndar",
            "maker": "Horizon",
            "price": 18000,
            "description": "Procesador polivalente ampliamente utilizado. Su uso de memoria es bajo, si bien carece de caracter\u00edsticas notables.",
            "stats": {
                "ingame": [
                    {
                        "id": "ShootingSpec",
                        "name": "Control de disparo",
                        "value": 10.0
                    },
                    {
                        "id": "BoostProcessSpec",
                        "name": "Control de impulso",
                        "value": 250.0
                    },
                    {
                        "id": "LimitTMP",
                        "name": "Control de l\u00edmite de resistencia",
                        "value": 600.0
                    },
                    {
                        "id": "ShootCorrectSpec",
                        "name": "Control de fijaci\u00f3n de objetivo",
                        "value": 2000.0
                    },
                    {
                        "id": "CostCapacityCorrection",
                        "name": "Funci\u00f3n de memoria optimizada",
                        "value": 1.0
                    }
                ],
                "hidden": [
                    {
                        "id": "ShieldFemto",
                        "value": 100.0
                    },
                    {
                        "id": "ShieldHP",
                        "value": 1080.0
                    },
                    {
                        "id": "ShieldNum",
                        "value": 3.0
                    },
                    {
                        "id": "CorrectionDef",
                        "value": 1.08
                    },
                    {
                        "id": "CorrectionCool",
                        "value": 1.0
                    },
                    {
                        "id": "CorrectionBurst",
                        "value": 1.0
                    },
                    {
                        "id": "MirageFemtoConsume",
                        "value": 16.0
                    },
                    {
                        "id": "TrajectoryCalcSpec",
                        "value": 1.0
                    },
                    {
                        "id": "FlyingProcessSpec",
                        "value": 250.0
                    },
                    {
                        "id": "CoolingPerformance",
                        "value": 50.0
                    },
                    {
                        "id": "FemtoUpRate",
                        "value": 1.0
                    }
                ]
            }
        },
        {
            "id": "AS_Inside_101",
            "name": "HAP-LC-R00 Control de fijaci\u00f3n",
            "maker": "Horizon",
            "price": 18000,
            "description": "Procesador que mejora el sistema de fijaci\u00f3n, aumentando ligeramente la distancia de fijaci\u00f3n de objetivos.",
            "stats": {
                "ingame": [
                    {
                        "id": "ShootingSpec",
                        "name": "Control de disparo",
                        "value": 10.0
                    },
                    {
                        "id": "BoostProcessSpec",
                        "name": "Control de impulso",
                        "value": 250.0
                    },
                    {
                        "id": "LimitTMP",
                        "name": "Control de l\u00edmite de resistencia",
                        "value": 600.0
                    },
                    {
                        "id": "ShootCorrectSpec",
                        "name": "Control de fijaci\u00f3n de objetivo",
                        "value": 4860.0
                    },
                    {
                        "id": "CostCapacityCorrection",
                        "name": "Funci\u00f3n de memoria optimizada",
                        "value": 1.0
                    }
                ],
                "hidden": [
                    {
                        "id": "ShieldFemto",
                        "value": 100.0
                    },
                    {
                        "id": "ShieldHP",
                        "value": 1080.0
                    },
                    {
                        "id": "ShieldNum",
                        "value": 3.0
                    },
                    {
                        "id": "CorrectionDef",
                        "value": 1.08
                    },
                    {
                        "id": "CorrectionCool",
                        "value": 1.0
                    },
                    {
                        "id": "CorrectionBurst",
                        "value": 1.0
                    },
                    {
                        "id": "MirageFemtoConsume",
                        "value": 16.0
                    },
                    {
                        "id": "TrajectoryCalcSpec",
                        "value": 1.0
                    },
                    {
                        "id": "FlyingProcessSpec",
                        "value": 250.0
                    },
                    {
                        "id": "CoolingPerformance",
                        "value": 50.0
                    },
                    {
                        "id": "FemtoUpRate",
                        "value": 1.0
                    }
                ]
            }
        },
        {
            "id": "AS_Inside_201",
            "name": "ZAP-BP-R00 Impulso \u2191",
            "maker": "Zen",
            "price": 18000,
            "description": "Procesador que mejora la movilidad, aumentando ligeramente la velocidad de impulso en tierra y aire.",
            "stats": {
                "ingame": [
                    {
                        "id": "ShootingSpec",
                        "name": "Control de disparo",
                        "value": 10.0
                    },
                    {
                        "id": "BoostProcessSpec",
                        "name": "Control de impulso",
                        "value": 890.0
                    },
                    {
                        "id": "LimitTMP",
                        "name": "Control de l\u00edmite de resistencia",
                        "value": 600.0
                    },
                    {
                        "id": "ShootCorrectSpec",
                        "name": "Control de fijaci\u00f3n de objetivo",
                        "value": 2000.0
                    },
                    {
                        "id": "CostCapacityCorrection",
                        "name": "Funci\u00f3n de memoria optimizada",
                        "value": 1.0
                    }
                ],
                "hidden": [
                    {
                        "id": "ShieldFemto",
                        "value": 100.0
                    },
                    {
                        "id": "ShieldHP",
                        "value": 1080.0
                    },
                    {
                        "id": "ShieldNum",
                        "value": 3.0
                    },
                    {
                        "id": "CorrectionDef",
                        "value": 1.08
                    },
                    {
                        "id": "CorrectionCool",
                        "value": 1.0
                    },
                    {
                        "id": "CorrectionBurst",
                        "value": 1.0
                    },
                    {
                        "id": "MirageFemtoConsume",
                        "value": 16.0
                    },
                    {
                        "id": "TrajectoryCalcSpec",
                        "value": 1.0
                    },
                    {
                        "id": "FlyingProcessSpec",
                        "value": 890.0
                    },
                    {
                        "id": "CoolingPerformance",
                        "value": 50.0
                    },
                    {
                        "id": "FemtoUpRate",
                        "value": 1.0
                    }
                ]
            }
        },
        {
            "id": "AS_Inside_700",
            "name": "SAP-SU-F01 Disparo \u2191",
            "maker": "Sky Union",
            "price": 18000,
            "description": "Procesador que mejora el rendimiento de disparo, aumentando ligeramente la precisi\u00f3n, la cadencia de disparo y la velocidad de recarga.",
            "stats": {
                "ingame": [
                    {
                        "id": "ShootingSpec",
                        "name": "Control de disparo",
                        "value": 21.0
                    },
                    {
                        "id": "BoostProcessSpec",
                        "name": "Control de impulso",
                        "value": 250.0
                    },
                    {
                        "id": "LimitTMP",
                        "name": "Control de l\u00edmite de resistencia",
                        "value": 600.0
                    },
                    {
                        "id": "ShootCorrectSpec",
                        "name": "Control de fijaci\u00f3n de objetivo",
                        "value": 2000.0
                    },
                    {
                        "id": "CostCapacityCorrection",
                        "name": "Funci\u00f3n de memoria optimizada",
                        "value": 1.0
                    }
                ],
                "hidden": [
                    {
                        "id": "ShieldFemto",
                        "value": 100.0
                    },
                    {
                        "id": "ShieldHP",
                        "value": 1080.0
                    },
                    {
                        "id": "ShieldNum",
                        "value": 3.0
                    },
                    {
                        "id": "CorrectionDef",
                        "value": 1.08
                    },
                    {
                        "id": "CorrectionCool",
                        "value": 1.0
                    },
                    {
                        "id": "CorrectionBurst",
                        "value": 1.0
                    },
                    {
                        "id": "MirageFemtoConsume",
                        "value": 16.0
                    },
                    {
                        "id": "TrajectoryCalcSpec",
                        "value": 1.0
                    },
                    {
                        "id": "FlyingProcessSpec",
                        "value": 250.0
                    },
                    {
                        "id": "CoolingPerformance",
                        "value": 50.0
                    },
                    {
                        "id": "FemtoUpRate",
                        "value": 1.0
                    }
                ]
            }
        },
        {
            "id": "AS_Inside_701",
            "name": "HAP-EF-F01 Resistencia \u2191",
            "maker": "Horizon",
            "price": 18000,
            "description": "Procesador que mejora la eficiencia de la resistencia, reduciendo ligeramente su uso.",
            "stats": {
                "ingame": [
                    {
                        "id": "ShootingSpec",
                        "name": "Control de disparo",
                        "value": 10.0
                    },
                    {
                        "id": "BoostProcessSpec",
                        "name": "Control de impulso",
                        "value": 250.0
                    },
                    {
                        "id": "LimitTMP",
                        "name": "Control de l\u00edmite de resistencia",
                        "value": 714.0
                    },
                    {
                        "id": "ShootCorrectSpec",
                        "name": "Control de fijaci\u00f3n de objetivo",
                        "value": 2000.0
                    },
                    {
                        "id": "CostCapacityCorrection",
                        "name": "Funci\u00f3n de memoria optimizada",
                        "value": 1.0
                    }
                ],
                "hidden": [
                    {
                        "id": "ShieldFemto",
                        "value": 100.0
                    },
                    {
                        "id": "ShieldHP",
                        "value": 1080.0
                    },
                    {
                        "id": "ShieldNum",
                        "value": 3.0
                    },
                    {
                        "id": "CorrectionDef",
                        "value": 1.08
                    },
                    {
                        "id": "CorrectionCool",
                        "value": 1.0
                    },
                    {
                        "id": "CorrectionBurst",
                        "value": 1.0
                    },
                    {
                        "id": "MirageFemtoConsume",
                        "value": 16.0
                    },
                    {
                        "id": "TrajectoryCalcSpec",
                        "value": 1.0
                    },
                    {
                        "id": "FlyingProcessSpec",
                        "value": 250.0
                    },
                    {
                        "id": "CoolingPerformance",
                        "value": 50.0
                    },
                    {
                        "id": "FemtoUpRate",
                        "value": 1.0
                    }
                ]
            }
        },
        {
            "id": "AS_Inside_703",
            "name": "SAP-MU-F01 Memoria \u2191",
            "maker": "Sky Union",
            "price": 20000,
            "description": "Procesador que mejora la memoria, aumentando ligeramente su capacidad m\u00e1xima.",
            "stats": {
                "ingame": [
                    {
                        "id": "ShootingSpec",
                        "name": "Control de disparo",
                        "value": 10.0
                    },
                    {
                        "id": "BoostProcessSpec",
                        "name": "Control de impulso",
                        "value": 250.0
                    },
                    {
                        "id": "LimitTMP",
                        "name": "Control de l\u00edmite de resistencia",
                        "value": 600.0
                    },
                    {
                        "id": "ShootCorrectSpec",
                        "name": "Control de fijaci\u00f3n de objetivo",
                        "value": 2000.0
                    },
                    {
                        "id": "CostCapacityCorrection",
                        "name": "Funci\u00f3n de memoria optimizada",
                        "value": 1.03
                    }
                ],
                "hidden": [
                    {
                        "id": "ShieldFemto",
                        "value": 100.0
                    },
                    {
                        "id": "ShieldHP",
                        "value": 1080.0
                    },
                    {
                        "id": "ShieldNum",
                        "value": 3.0
                    },
                    {
                        "id": "CorrectionDef",
                        "value": 1.08
                    },
                    {
                        "id": "CorrectionCool",
                        "value": 1.0
                    },
                    {
                        "id": "CorrectionBurst",
                        "value": 1.0
                    },
                    {
                        "id": "MirageFemtoConsume",
                        "value": 16.0
                    },
                    {
                        "id": "TrajectoryCalcSpec",
                        "value": 1.0
                    },
                    {
                        "id": "FlyingProcessSpec",
                        "value": 250.0
                    },
                    {
                        "id": "CoolingPerformance",
                        "value": 50.0
                    },
                    {
                        "id": "FemtoUpRate",
                        "value": 1.0
                    }
                ]
            }
        },
        {
            "id": "AS_Inside_800",
            "name": "HAP-LC-F02 Control de fijaci\u00f3n II",
            "maker": "Horizon",
            "price": 100000,
            "description": "Procesador que mejora el sistema de fijaci\u00f3n, aumentando moderamente la distancia de fijaci\u00f3n de objetivos.",
            "stats": {
                "ingame": [
                    {
                        "id": "ShootingSpec",
                        "name": "Control de disparo",
                        "value": 10.0
                    },
                    {
                        "id": "BoostProcessSpec",
                        "name": "Control de impulso",
                        "value": 250.0
                    },
                    {
                        "id": "LimitTMP",
                        "name": "Control de l\u00edmite de resistencia",
                        "value": 600.0
                    },
                    {
                        "id": "ShootCorrectSpec",
                        "name": "Control de fijaci\u00f3n de objetivo",
                        "value": 6900.0
                    },
                    {
                        "id": "CostCapacityCorrection",
                        "name": "Funci\u00f3n de memoria optimizada",
                        "value": 1.0
                    }
                ],
                "hidden": [
                    {
                        "id": "ShieldFemto",
                        "value": 100.0
                    },
                    {
                        "id": "ShieldHP",
                        "value": 1080.0
                    },
                    {
                        "id": "ShieldNum",
                        "value": 3.0
                    },
                    {
                        "id": "CorrectionDef",
                        "value": 1.08
                    },
                    {
                        "id": "CorrectionCool",
                        "value": 1.0
                    },
                    {
                        "id": "CorrectionBurst",
                        "value": 1.0
                    },
                    {
                        "id": "MirageFemtoConsume",
                        "value": 16.0
                    },
                    {
                        "id": "TrajectoryCalcSpec",
                        "value": 1.0
                    },
                    {
                        "id": "FlyingProcessSpec",
                        "value": 250.0
                    },
                    {
                        "id": "CoolingPerformance",
                        "value": 50.0
                    },
                    {
                        "id": "FemtoUpRate",
                        "value": 1.0
                    }
                ]
            }
        },
        {
            "id": "AS_Inside_801",
            "name": "ZAP-BP-F02 Impulso \u2191 II",
            "maker": "Zen",
            "price": 100000,
            "description": "Procesador que mejora la movilidad, aumentando moderadamente la velocidad de impulso en tierra y aire.",
            "stats": {
                "ingame": [
                    {
                        "id": "ShootingSpec",
                        "name": "Control de disparo",
                        "value": 10.0
                    },
                    {
                        "id": "BoostProcessSpec",
                        "name": "Control de impulso",
                        "value": 1350.0
                    },
                    {
                        "id": "LimitTMP",
                        "name": "Control de l\u00edmite de resistencia",
                        "value": 600.0
                    },
                    {
                        "id": "ShootCorrectSpec",
                        "name": "Control de fijaci\u00f3n de objetivo",
                        "value": 2000.0
                    },
                    {
                        "id": "CostCapacityCorrection",
                        "name": "Funci\u00f3n de memoria optimizada",
                        "value": 1.0
                    }
                ],
                "hidden": [
                    {
                        "id": "ShieldFemto",
                        "value": 100.0
                    },
                    {
                        "id": "ShieldHP",
                        "value": 1080.0
                    },
                    {
                        "id": "ShieldNum",
                        "value": 3.0
                    },
                    {
                        "id": "CorrectionDef",
                        "value": 1.08
                    },
                    {
                        "id": "CorrectionCool",
                        "value": 1.0
                    },
                    {
                        "id": "CorrectionBurst",
                        "value": 1.0
                    },
                    {
                        "id": "MirageFemtoConsume",
                        "value": 16.0
                    },
                    {
                        "id": "TrajectoryCalcSpec",
                        "value": 1.0
                    },
                    {
                        "id": "FlyingProcessSpec",
                        "value": 1350.0
                    },
                    {
                        "id": "CoolingPerformance",
                        "value": 50.0
                    },
                    {
                        "id": "FemtoUpRate",
                        "value": 1.0
                    }
                ]
            }
        },
        {
            "id": "AS_Inside_802",
            "name": "SAP-SU-F02 Disparo \u2191 II",
            "maker": "Sky Union",
            "price": 100000,
            "description": "Procesador que mejora el rendimiento de disparo, aumentando moderadamente la precisi\u00f3n, la cadencia de disparo y la velocidad de recarga.",
            "stats": {
                "ingame": [
                    {
                        "id": "ShootingSpec",
                        "name": "Control de disparo",
                        "value": 30.0
                    },
                    {
                        "id": "BoostProcessSpec",
                        "name": "Control de impulso",
                        "value": 250.0
                    },
                    {
                        "id": "LimitTMP",
                        "name": "Control de l\u00edmite de resistencia",
                        "value": 600.0
                    },
                    {
                        "id": "ShootCorrectSpec",
                        "name": "Control de fijaci\u00f3n de objetivo",
                        "value": 2000.0
                    },
                    {
                        "id": "CostCapacityCorrection",
                        "name": "Funci\u00f3n de memoria optimizada",
                        "value": 1.0
                    }
                ],
                "hidden": [
                    {
                        "id": "ShieldFemto",
                        "value": 100.0
                    },
                    {
                        "id": "ShieldHP",
                        "value": 1080.0
                    },
                    {
                        "id": "ShieldNum",
                        "value": 3.0
                    },
                    {
                        "id": "CorrectionDef",
                        "value": 1.08
                    },
                    {
                        "id": "CorrectionCool",
                        "value": 1.0
                    },
                    {
                        "id": "CorrectionBurst",
                        "value": 1.0
                    },
                    {
                        "id": "MirageFemtoConsume",
                        "value": 16.0
                    },
                    {
                        "id": "TrajectoryCalcSpec",
                        "value": 1.0
                    },
                    {
                        "id": "FlyingProcessSpec",
                        "value": 250.0
                    },
                    {
                        "id": "CoolingPerformance",
                        "value": 50.0
                    },
                    {
                        "id": "FemtoUpRate",
                        "value": 1.0
                    }
                ]
            }
        },
        {
            "id": "AS_Inside_803",
            "name": "HAP-EF-F02 Resistencia \u2191 II",
            "maker": "Horizon",
            "price": 100000,
            "description": "Procesador que mejora la eficiencia de la resistencia, reduciendo moderadamente su uso.",
            "stats": {
                "ingame": [
                    {
                        "id": "ShootingSpec",
                        "name": "Control de disparo",
                        "value": 10.0
                    },
                    {
                        "id": "BoostProcessSpec",
                        "name": "Control de impulso",
                        "value": 250.0
                    },
                    {
                        "id": "LimitTMP",
                        "name": "Control de l\u00edmite de resistencia",
                        "value": 796.0
                    },
                    {
                        "id": "ShootCorrectSpec",
                        "name": "Control de fijaci\u00f3n de objetivo",
                        "value": 2000.0
                    },
                    {
                        "id": "CostCapacityCorrection",
                        "name": "Funci\u00f3n de memoria optimizada",
                        "value": 1.0
                    }
                ],
                "hidden": [
                    {
                        "id": "ShieldFemto",
                        "value": 100.0
                    },
                    {
                        "id": "ShieldHP",
                        "value": 1080.0
                    },
                    {
                        "id": "ShieldNum",
                        "value": 3.0
                    },
                    {
                        "id": "CorrectionDef",
                        "value": 1.08
                    },
                    {
                        "id": "CorrectionCool",
                        "value": 1.0
                    },
                    {
                        "id": "CorrectionBurst",
                        "value": 1.0
                    },
                    {
                        "id": "MirageFemtoConsume",
                        "value": 16.0
                    },
                    {
                        "id": "TrajectoryCalcSpec",
                        "value": 1.0
                    },
                    {
                        "id": "FlyingProcessSpec",
                        "value": 250.0
                    },
                    {
                        "id": "CoolingPerformance",
                        "value": 50.0
                    },
                    {
                        "id": "FemtoUpRate",
                        "value": 1.0
                    }
                ]
            }
        },
        {
            "id": "AS_Inside_805",
            "name": "SAP-MU-F02 Memoria \u2191 II",
            "maker": "Sky Union",
            "price": 100000,
            "description": "Procesador que mejora la memoria, aumentando moderadamente su capacidad m\u00e1xima.",
            "stats": {
                "ingame": [
                    {
                        "id": "ShootingSpec",
                        "name": "Control de disparo",
                        "value": 10.0
                    },
                    {
                        "id": "BoostProcessSpec",
                        "name": "Control de impulso",
                        "value": 250.0
                    },
                    {
                        "id": "LimitTMP",
                        "name": "Control de l\u00edmite de resistencia",
                        "value": 600.0
                    },
                    {
                        "id": "ShootCorrectSpec",
                        "name": "Control de fijaci\u00f3n de objetivo",
                        "value": 2000.0
                    },
                    {
                        "id": "CostCapacityCorrection",
                        "name": "Funci\u00f3n de memoria optimizada",
                        "value": 1.06
                    }
                ],
                "hidden": [
                    {
                        "id": "ShieldFemto",
                        "value": 100.0
                    },
                    {
                        "id": "ShieldHP",
                        "value": 1080.0
                    },
                    {
                        "id": "ShieldNum",
                        "value": 3.0
                    },
                    {
                        "id": "CorrectionDef",
                        "value": 1.08
                    },
                    {
                        "id": "CorrectionCool",
                        "value": 1.0
                    },
                    {
                        "id": "CorrectionBurst",
                        "value": 1.0
                    },
                    {
                        "id": "MirageFemtoConsume",
                        "value": 16.0
                    },
                    {
                        "id": "TrajectoryCalcSpec",
                        "value": 1.0
                    },
                    {
                        "id": "FlyingProcessSpec",
                        "value": 250.0
                    },
                    {
                        "id": "CoolingPerformance",
                        "value": 50.0
                    },
                    {
                        "id": "FemtoUpRate",
                        "value": 1.0
                    }
                ]
            }
        },
        {
            "id": "AS_Inside_806",
            "name": "HAP-LC-F03 Control de fijaci\u00f3n III",
            "maker": "Horizon",
            "price": 350000,
            "description": "Procesador que mejora el sistema de fijaci\u00f3n, aumentando sustancialmente la distancia de fijaci\u00f3n de objetivos.",
            "stats": {
                "ingame": [
                    {
                        "id": "ShootingSpec",
                        "name": "Control de disparo",
                        "value": 10.0
                    },
                    {
                        "id": "BoostProcessSpec",
                        "name": "Control de impulso",
                        "value": 250.0
                    },
                    {
                        "id": "LimitTMP",
                        "name": "Control de l\u00edmite de resistencia",
                        "value": 600.0
                    },
                    {
                        "id": "ShootCorrectSpec",
                        "name": "Control de fijaci\u00f3n de objetivo",
                        "value": 12000.0
                    },
                    {
                        "id": "CostCapacityCorrection",
                        "name": "Funci\u00f3n de memoria optimizada",
                        "value": 1.0
                    }
                ],
                "hidden": [
                    {
                        "id": "ShieldFemto",
                        "value": 100.0
                    },
                    {
                        "id": "ShieldHP",
                        "value": 1080.0
                    },
                    {
                        "id": "ShieldNum",
                        "value": 3.0
                    },
                    {
                        "id": "CorrectionDef",
                        "value": 1.08
                    },
                    {
                        "id": "CorrectionCool",
                        "value": 1.0
                    },
                    {
                        "id": "CorrectionBurst",
                        "value": 1.0
                    },
                    {
                        "id": "MirageFemtoConsume",
                        "value": 16.0
                    },
                    {
                        "id": "TrajectoryCalcSpec",
                        "value": 1.0
                    },
                    {
                        "id": "FlyingProcessSpec",
                        "value": 250.0
                    },
                    {
                        "id": "CoolingPerformance",
                        "value": 50.0
                    },
                    {
                        "id": "FemtoUpRate",
                        "value": 1.0
                    }
                ]
            }
        },
        {
            "id": "AS_Inside_807",
            "name": "ZAP-BP-F03 Impulso \u2191 III",
            "maker": "Zen",
            "price": 350000,
            "description": "Procesador que mejora la movilidad, aumentando sustancialmente la velocidad de impulso en tierra y aire.",
            "stats": {
                "ingame": [
                    {
                        "id": "ShootingSpec",
                        "name": "Control de disparo",
                        "value": 10.0
                    },
                    {
                        "id": "BoostProcessSpec",
                        "name": "Control de impulso",
                        "value": 2500.0
                    },
                    {
                        "id": "LimitTMP",
                        "name": "Control de l\u00edmite de resistencia",
                        "value": 600.0
                    },
                    {
                        "id": "ShootCorrectSpec",
                        "name": "Control de fijaci\u00f3n de objetivo",
                        "value": 2000.0
                    },
                    {
                        "id": "CostCapacityCorrection",
                        "name": "Funci\u00f3n de memoria optimizada",
                        "value": 1.0
                    }
                ],
                "hidden": [
                    {
                        "id": "ShieldFemto",
                        "value": 100.0
                    },
                    {
                        "id": "ShieldHP",
                        "value": 1080.0
                    },
                    {
                        "id": "ShieldNum",
                        "value": 3.0
                    },
                    {
                        "id": "CorrectionDef",
                        "value": 1.08
                    },
                    {
                        "id": "CorrectionCool",
                        "value": 1.0
                    },
                    {
                        "id": "CorrectionBurst",
                        "value": 1.0
                    },
                    {
                        "id": "MirageFemtoConsume",
                        "value": 16.0
                    },
                    {
                        "id": "TrajectoryCalcSpec",
                        "value": 1.0
                    },
                    {
                        "id": "FlyingProcessSpec",
                        "value": 2500.0
                    },
                    {
                        "id": "CoolingPerformance",
                        "value": 50.0
                    },
                    {
                        "id": "FemtoUpRate",
                        "value": 1.0
                    }
                ]
            }
        },
        {
            "id": "AS_Inside_808",
            "name": "SAP-SU-F03 Disparo \u2191 III",
            "maker": "Sky Union",
            "price": 350000,
            "description": "Procesador que mejora el rendimiento de disparo, aumentando sustancialmente la precisi\u00f3n, la cadencia de disparo y la velocidad de recarga.",
            "stats": {
                "ingame": [
                    {
                        "id": "ShootingSpec",
                        "name": "Control de disparo",
                        "value": 50.0
                    },
                    {
                        "id": "BoostProcessSpec",
                        "name": "Control de impulso",
                        "value": 250.0
                    },
                    {
                        "id": "LimitTMP",
                        "name": "Control de l\u00edmite de resistencia",
                        "value": 600.0
                    },
                    {
                        "id": "ShootCorrectSpec",
                        "name": "Control de fijaci\u00f3n de objetivo",
                        "value": 2000.0
                    },
                    {
                        "id": "CostCapacityCorrection",
                        "name": "Funci\u00f3n de memoria optimizada",
                        "value": 1.0
                    }
                ],
                "hidden": [
                    {
                        "id": "ShieldFemto",
                        "value": 100.0
                    },
                    {
                        "id": "ShieldHP",
                        "value": 1080.0
                    },
                    {
                        "id": "ShieldNum",
                        "value": 3.0
                    },
                    {
                        "id": "CorrectionDef",
                        "value": 1.08
                    },
                    {
                        "id": "CorrectionCool",
                        "value": 1.0
                    },
                    {
                        "id": "CorrectionBurst",
                        "value": 1.0
                    },
                    {
                        "id": "MirageFemtoConsume",
                        "value": 16.0
                    },
                    {
                        "id": "TrajectoryCalcSpec",
                        "value": 1.0
                    },
                    {
                        "id": "FlyingProcessSpec",
                        "value": 250.0
                    },
                    {
                        "id": "CoolingPerformance",
                        "value": 50.0
                    },
                    {
                        "id": "FemtoUpRate",
                        "value": 1.0
                    }
                ]
            }
        },
        {
            "id": "AS_Inside_809",
            "name": "HAP-EF-F03 Resistencia \u2191 III",
            "maker": "Horizon",
            "price": 350000,
            "description": "Procesador que mejora la eficiencia de la resistencia, reduciendo sustancialmente su uso.",
            "stats": {
                "ingame": [
                    {
                        "id": "ShootingSpec",
                        "name": "Control de disparo",
                        "value": 10.0
                    },
                    {
                        "id": "BoostProcessSpec",
                        "name": "Control de impulso",
                        "value": 250.0
                    },
                    {
                        "id": "LimitTMP",
                        "name": "Control de l\u00edmite de resistencia",
                        "value": 1000.0
                    },
                    {
                        "id": "ShootCorrectSpec",
                        "name": "Control de fijaci\u00f3n de objetivo",
                        "value": 2000.0
                    },
                    {
                        "id": "CostCapacityCorrection",
                        "name": "Funci\u00f3n de memoria optimizada",
                        "value": 1.0
                    }
                ],
                "hidden": [
                    {
                        "id": "ShieldFemto",
                        "value": 100.0
                    },
                    {
                        "id": "ShieldHP",
                        "value": 1080.0
                    },
                    {
                        "id": "ShieldNum",
                        "value": 3.0
                    },
                    {
                        "id": "CorrectionDef",
                        "value": 1.08
                    },
                    {
                        "id": "CorrectionCool",
                        "value": 1.0
                    },
                    {
                        "id": "CorrectionBurst",
                        "value": 1.0
                    },
                    {
                        "id": "MirageFemtoConsume",
                        "value": 16.0
                    },
                    {
                        "id": "TrajectoryCalcSpec",
                        "value": 1.0
                    },
                    {
                        "id": "FlyingProcessSpec",
                        "value": 250.0
                    },
                    {
                        "id": "CoolingPerformance",
                        "value": 50.0
                    },
                    {
                        "id": "FemtoUpRate",
                        "value": 1.0
                    }
                ]
            }
        },
        {
            "id": "AS_Inside_811",
            "name": "SAP-MU-F03 Memoria \u2191 III",
            "maker": "Sky Union",
            "price": 350000,
            "description": "Procesador que mejora la memoria, aumentando sustancialmente su capacidad m\u00e1xima.",
            "stats": {
                "ingame": [
                    {
                        "id": "ShootingSpec",
                        "name": "Control de disparo",
                        "value": 10.0
                    },
                    {
                        "id": "BoostProcessSpec",
                        "name": "Control de impulso",
                        "value": 250.0
                    },
                    {
                        "id": "LimitTMP",
                        "name": "Control de l\u00edmite de resistencia",
                        "value": 600.0
                    },
                    {
                        "id": "ShootCorrectSpec",
                        "name": "Control de fijaci\u00f3n de objetivo",
                        "value": 2000.0
                    },
                    {
                        "id": "CostCapacityCorrection",
                        "name": "Funci\u00f3n de memoria optimizada",
                        "value": 1.09
                    }
                ],
                "hidden": [
                    {
                        "id": "ShieldFemto",
                        "value": 100.0
                    },
                    {
                        "id": "ShieldHP",
                        "value": 1080.0
                    },
                    {
                        "id": "ShieldNum",
                        "value": 3.0
                    },
                    {
                        "id": "CorrectionDef",
                        "value": 1.08
                    },
                    {
                        "id": "CorrectionCool",
                        "value": 1.0
                    },
                    {
                        "id": "CorrectionBurst",
                        "value": 1.0
                    },
                    {
                        "id": "MirageFemtoConsume",
                        "value": 16.0
                    },
                    {
                        "id": "TrajectoryCalcSpec",
                        "value": 1.0
                    },
                    {
                        "id": "FlyingProcessSpec",
                        "value": 250.0
                    },
                    {
                        "id": "CoolingPerformance",
                        "value": 50.0
                    },
                    {
                        "id": "FemtoUpRate",
                        "value": 1.0
                    }
                ]
            }
        },
        {
            "id": "AS_Inside_812",
            "name": "OAP-NB-F00 Asistencia de punter\u00eda",
            "maker": "Orbital",
            "price": 12000,
            "description": "Procesador con funci\u00f3n de rastreo autom\u00e1tico para ayudar a nuevos pilotos a seguir los objetivos fijados.",
            "stats": {
                "ingame": [
                    {
                        "id": "ShootingSpec",
                        "name": "Control de disparo",
                        "value": 10.0
                    },
                    {
                        "id": "BoostProcessSpec",
                        "name": "Control de impulso",
                        "value": 250.0
                    },
                    {
                        "id": "LimitTMP",
                        "name": "Control de l\u00edmite de resistencia",
                        "value": 600.0
                    },
                    {
                        "id": "ShootCorrectSpec",
                        "name": "Control de fijaci\u00f3n de objetivo",
                        "value": 2000.0
                    },
                    {
                        "id": "CostCapacityCorrection",
                        "name": "Funci\u00f3n de memoria optimizada",
                        "value": 0.9
                    }
                ],
                "hidden": [
                    {
                        "id": "ShieldFemto",
                        "value": 100.0
                    },
                    {
                        "id": "ShieldHP",
                        "value": 1080.0
                    },
                    {
                        "id": "ShieldNum",
                        "value": 3.0
                    },
                    {
                        "id": "CorrectionDef",
                        "value": 1.08
                    },
                    {
                        "id": "CorrectionCool",
                        "value": 1.0
                    },
                    {
                        "id": "CorrectionBurst",
                        "value": 1.0
                    },
                    {
                        "id": "MirageFemtoConsume",
                        "value": 16.0
                    },
                    {
                        "id": "TrajectoryCalcSpec",
                        "value": 1.0
                    },
                    {
                        "id": "FlyingProcessSpec",
                        "value": 250.0
                    },
                    {
                        "id": "CoolingPerformance",
                        "value": 50.0
                    },
                    {
                        "id": "FemtoUpRate",
                        "value": 1.0
                    },
                    {
                        "id": "LockOnReviseEnabled",
                        "value": true
                    }
                ]
            }
        }
    ]
}