{
    "free_d": [
        {
            "id": "Mission_0201_02",
            "title": "Reclaim Gnomenatos Factory",
            "subtitle": "02-0202: Fire Power",
            "client": "Horizon",
            "summary": "Your objective is to reclaim a production facility that has been seized by enemy AIs. Identify and eliminate the commanding AI unit in the area.",
            "area": "Gnomenatos Factory",
            "goals": [
                {
                    "text": "Defeat the commanding unit.",
                    "reward": 6000
                },
                {
                    "text": "Complete mission within 150 seconds.",
                    "reward": 2800
                }
            ],
            "failures": [],
            "enemies": [
                {
                    "id": "NPC_Basic_059",
                    "name": "Strai",
                    "outer": "None",
                    "parts": {
                        "head": {
                            "id": "AS_Head_100",
                            "name": "HAP-RG-H01 Legion",
                            "droprate": 10.0
                        },
                        "body": {
                            "id": "AS_Body_100",
                            "name": "HAP-RG-C01 Legion",
                            "droprate": 10.0
                        },
                        "arm_l": {
                            "id": "AS_Arm_L_100",
                            "name": "HAP-RG-L01 Legion",
                            "droprate": 10.0
                        },
                        "arm_r": {
                            "id": "AS_Arm_R_003",
                            "name": "ZAP-OF-R02 Osafune",
                            "droprate": 25.0
                        },
                        "legs": {
                            "id": "AS_Legs_100",
                            "name": "HAP-RG-B01 Legion",
                            "droprate": 10.0
                        }
                    },
                    "weapons": {
                        "weapon_l": {
                            "id": "wp_00_02_a",
                            "name": "HAW-SH01 Azrael",
                            "droprate": 30.0
                        },
                        "pylon_l": {
                            "id": "None",
                            "name": "None",
                            "droprate": 0.0
                        },
                        "weapon_r": {
                            "id": "wp_00_02_a",
                            "name": "HAW-SH01 Azrael",
                            "droprate": 30.0
                        },
                        "pylon_r": {
                            "id": "None",
                            "name": "None",
                            "droprate": 0.0
                        },
                        "shoulder": {
                            "id": "wp_09_00",
                            "name": "SAW-AM02 Thunderbird",
                            "droprate": 15.0
                        },
                        "support": {
                            "id": "wp_16_08",
                            "name": "HAW-RM03 Reserve Magazine",
                            "droprate": 30.0
                        }
                    }
                },
                {
                    "id": "NPC_Basic_060",
                    "name": "Strai",
                    "outer": "None",
                    "parts": {
                        "head": {
                            "id": "AS_Head_003",
                            "name": "ZAP-OF-H02 Osafune",
                            "droprate": 10.0
                        },
                        "body": {
                            "id": "AS_Body_100",
                            "name": "HAP-RG-C01 Legion",
                            "droprate": 10.0
                        },
                        "arm_l": {
                            "id": "AS_Arm_L_003",
                            "name": "ZAP-OF-L02 Osafune",
                            "droprate": 25.0
                        },
                        "arm_r": {
                            "id": "AS_Arm_R_100",
                            "name": "HAP-RG-R01 Legion",
                            "droprate": 10.0
                        },
                        "legs": {
                            "id": "AS_Legs_003",
                            "name": "ZAP-OF-B02 Osafune",
                            "droprate": 10.0
                        }
                    },
                    "weapons": {
                        "weapon_l": {
                            "id": "wp_07_00",
                            "name": "SAW-P01 Titan Plate",
                            "droprate": 10.0
                        },
                        "pylon_l": {
                            "id": "None",
                            "name": "None",
                            "droprate": 0.0
                        },
                        "weapon_r": {
                            "id": "wp_07_00",
                            "name": "SAW-P01 Titan Plate",
                            "droprate": 10.0
                        },
                        "pylon_r": {
                            "id": "None",
                            "name": "None",
                            "droprate": 0.0
                        },
                        "shoulder": {
                            "id": "wp_09_00",
                            "name": "SAW-AM02 Thunderbird",
                            "droprate": 15.0
                        },
                        "support": {
                            "id": "None",
                            "name": "None",
                            "droprate": 0.0
                        }
                    }
                },
                {
                    "id": "NPC_Basic_061",
                    "name": "Strai",
                    "outer": "None",
                    "parts": {
                        "head": {
                            "id": "AS_Head_100",
                            "name": "HAP-RG-H01 Legion",
                            "droprate": 10.0
                        },
                        "body": {
                            "id": "AS_Body_100",
                            "name": "HAP-RG-C01 Legion",
                            "droprate": 10.0
                        },
                        "arm_l": {
                            "id": "AS_Arm_L_006",
                            "name": "HAP-GL-L01 Goliath",
                            "droprate": 10.0
                        },
                        "arm_r": {
                            "id": "AS_Arm_R_006",
                            "name": "HAP-GL-R01 Goliath",
                            "droprate": 25.0
                        },
                        "legs": {
                            "id": "AS_Legs_100",
                            "name": "HAP-RG-B01 Legion",
                            "droprate": 10.0
                        }
                    },
                    "weapons": {
                        "weapon_l": {
                            "id": "wp_07_00",
                            "name": "SAW-P01 Titan Plate",
                            "droprate": 10.0
                        },
                        "pylon_l": {
                            "id": "None",
                            "name": "None",
                            "droprate": 0.0
                        },
                        "weapon_r": {
                            "id": "wp_07_00",
                            "name": "SAW-P01 Titan Plate",
                            "droprate": 10.0
                        },
                        "pylon_r": {
                            "id": "None",
                            "name": "None",
                            "droprate": 0.0
                        },
                        "shoulder": {
                            "id": "wp_09_00",
                            "name": "SAW-AM02 Thunderbird",
                            "droprate": 15.0
                        },
                        "support": {
                            "id": "None",
                            "name": "None",
                            "droprate": 0.0
                        }
                    }
                }
            ],
            "allies": [],
            "partners": {
                "max": 1,
                "partners": [
                    {
                        "id": "NPC_Barrett_006",
                        "name": "Peacemaker",
                        "outer": "Johnny G",
                        "rate": 45.0
                    },
                    {
                        "id": "NPC_Innocence_005",
                        "name": "Ogre Epsilon",
                        "outer": "Chill",
                        "rate": 45.0
                    }
                ]
            },
            "encounters": {
                "rate": 35.0,
                "arsenals": [
                    {
                        "id": "NPC_Barrett_001",
                        "name": "Bullet Walker",
                        "outer": "Brigadier General",
                        "rate": 60.0,
                        "parts": {
                            "head": {
                                "id": "AS_Head_011",
                                "name": "SAP-GD-H01 Gladius",
                                "droprate": 20.0
                            },
                            "body": {
                                "id": "AS_Body_011",
                                "name": "SAP-GD-C01 Gladius",
                                "droprate": 20.0
                            },
                            "arm_l": {
                                "id": "AS_Arm_L_011",
                                "name": "SAP-GD-L01 Gladius",
                                "droprate": 20.0
                            },
                            "arm_r": {
                                "id": "AS_Arm_R_011",
                                "name": "SAP-GD-R01 Gladius",
                                "droprate": 20.0
                            },
                            "legs": {
                                "id": "AS_Legs_011",
                                "name": "SAP-GD-B01 Gladius",
                                "droprate": 20.0
                            }
                        },
                        "weapons": {
                            "weapon_l": {
                                "id": "wp_00_01",
                                "name": "HAW-M01 Silver Raven",
                                "droprate": 20.0
                            },
                            "pylon_l": {
                                "id": "None",
                                "name": "None",
                                "droprate": 0.0
                            },
                            "weapon_r": {
                                "id": "wp_00_01",
                                "name": "HAW-M01 Silver Raven",
                                "droprate": 20.0
                            },
                            "pylon_r": {
                                "id": "None",
                                "name": "None",
                                "droprate": 0.0
                            },
                            "shoulder": {
                                "id": "wp_09_00_a",
                                "name": "SAW-AM05 Thunderbird II",
                                "droprate": 20.0
                            },
                            "support": {
                                "id": "wp_12_00",
                                "name": "HAW-GR01 Hand Grenade",
                                "droprate": 20.0
                            }
                        }
                    },
                    {
                        "id": "NPC_Tellers_001",
                        "name": "Kloster",
                        "outer": "Grief",
                        "rate": 80.0,
                        "parts": {
                            "head": {
                                "id": "AS_Head_001",
                                "name": "SAP-HB-H01 Halberd",
                                "droprate": 20.0
                            },
                            "body": {
                                "id": "AS_Body_001",
                                "name": "SAP-HB-C01 Halberd",
                                "droprate": 20.0
                            },
                            "arm_l": {
                                "id": "AS_Arm_L_001",
                                "name": "SAP-HB-L01 Halberd",
                                "droprate": 20.0
                            },
                            "arm_r": {
                                "id": "AS_Arm_R_001",
                                "name": "SAP-HB-R01 Halberd",
                                "droprate": 20.0
                            },
                            "legs": {
                                "id": "AS_Legs_001",
                                "name": "SAP-HB-B01 Halberd",
                                "droprate": 20.0
                            }
                        },
                        "weapons": {
                            "weapon_l": {
                                "id": "wp_00_04",
                                "name": "SAW-B17 Gillingr Impact",
                                "droprate": 20.0
                            },
                            "pylon_l": {
                                "id": "wp_03_01",
                                "name": "ZAW-S08 Habakiri",
                                "droprate": 20.0
                            },
                            "weapon_r": {
                                "id": "wp_00_00",
                                "name": "HAW-R01 Grim Reaper",
                                "droprate": 20.0
                            },
                            "pylon_r": {
                                "id": "wp_00_01",
                                "name": "HAW-M01 Silver Raven",
                                "droprate": 20.0
                            },
                            "shoulder": {
                                "id": "wp_09_00",
                                "name": "SAW-AM02 Thunderbird",
                                "droprate": 20.0
                            },
                            "support": {
                                "id": "None",
                                "name": "None",
                                "droprate": 0.0
                            }
                        }
                    },
                    {
                        "id": "NPC_Tellers_001_Mi7-04",
                        "name": "Kloster",
                        "outer": "Grief",
                        "rate": 80.0,
                        "parts": {
                            "head": {
                                "id": "AS_Head_001",
                                "name": "SAP-HB-H01 Halberd",
                                "droprate": 20.0
                            },
                            "body": {
                                "id": "AS_Body_001",
                                "name": "SAP-HB-C01 Halberd",
                                "droprate": 20.0
                            },
                            "arm_l": {
                                "id": "AS_Arm_L_001",
                                "name": "SAP-HB-L01 Halberd",
                                "droprate": 20.0
                            },
                            "arm_r": {
                                "id": "AS_Arm_R_001",
                                "name": "SAP-HB-R01 Halberd",
                                "droprate": 20.0
                            },
                            "legs": {
                                "id": "AS_Legs_001",
                                "name": "SAP-HB-B01 Halberd",
                                "droprate": 20.0
                            }
                        },
                        "weapons": {
                            "weapon_l": {
                                "id": "wp_00_04",
                                "name": "SAW-B17 Gillingr Impact",
                                "droprate": 20.0
                            },
                            "pylon_l": {
                                "id": "wp_03_01_a",
                                "name": "ZAW-S09 Murakumo",
                                "droprate": 20.0
                            },
                            "weapon_r": {
                                "id": "wp_00_00_d",
                                "name": "HAW-R26 Guilty Throne",
                                "droprate": 20.0
                            },
                            "pylon_r": {
                                "id": "wp_00_01_b",
                                "name": "HAW-M05 Silver Raven II",
                                "droprate": 20.0
                            },
                            "shoulder": {
                                "id": "wp_09_00_a",
                                "name": "SAW-AM05 Thunderbird II",
                                "droprate": 20.0
                            },
                            "support": {
                                "id": "None",
                                "name": "None",
                                "droprate": 0.0
                            }
                        }
                    },
                    {
                        "id": "NPC_Tellers_002",
                        "name": "Antanaklasi",
                        "outer": "Regret",
                        "rate": 60.0,
                        "parts": {
                            "head": {
                                "id": "AS_Head_004",
                                "name": "HAP-AT-H11 Atlas",
                                "droprate": 20.0
                            },
                            "body": {
                                "id": "AS_Body_013",
                                "name": "SAP-SB-C01 Sword Breaker",
                                "droprate": 20.0
                            },
                            "arm_l": {
                                "id": "AS_Arm_L_001",
                                "name": "SAP-HB-L01 Halberd",
                                "droprate": 20.0
                            },
                            "arm_r": {
                                "id": "AS_Arm_R_001",
                                "name": "SAP-HB-R01 Halberd",
                                "droprate": 20.0
                            },
                            "legs": {
                                "id": "AS_Legs_013",
                                "name": "SAP-SB-B01 Sword Breaker",
                                "droprate": 20.0
                            }
                        },
                        "weapons": {
                            "weapon_l": {
                                "id": "wp_01_00_a",
                                "name": "HAW-L05 Stargazer",
                                "droprate": 20.0
                            },
                            "pylon_l": {
                                "id": "wp_00_03",
                                "name": "SAW-SR51 Failnaught",
                                "droprate": 20.0
                            },
                            "weapon_r": {
                                "id": "wp_00_03_a",
                                "name": "HAW-SR12 Punishment",
                                "droprate": 20.0
                            },
                            "pylon_r": {
                                "id": "wp_00_00_b",
                                "name": "SAW-R01 Astraeus",
                                "droprate": 20.0
                            },
                            "shoulder": {
                                "id": "wp_13_01",
                                "name": "HAW-BL09 Dark Mantis",
                                "droprate": 20.0
                            },
                            "support": {
                                "id": "None",
                                "name": "None",
                                "droprate": 0.0
                            }
                        }
                    },
                    {
                        "id": "NPC_Solomon_001",
                        "name": "Muramasa",
                        "outer": "Solomon",
                        "rate": 30.0,
                        "parts": {
                            "head": {
                                "id": "AS_Head_015",
                                "name": "ZAP-MX-H09 Muramasa",
                                "droprate": 20.0
                            },
                            "body": {
                                "id": "AS_Body_015",
                                "name": "ZAP-MX-C09 Muramasa",
                                "droprate": 20.0
                            },
                            "arm_l": {
                                "id": "AS_Arm_L_015",
                                "name": "ZAP-MX-L09 Muramasa",
                                "droprate": 20.0
                            },
                            "arm_r": {
                                "id": "AS_Arm_R_015",
                                "name": "ZAP-MX-R09 Muramasa",
                                "droprate": 20.0
                            },
                            "legs": {
                                "id": "AS_Legs_015",
                                "name": "ZAP-MX-B09 Muramasa",
                                "droprate": 20.0
                            }
                        },
                        "weapons": {
                            "weapon_l": {
                                "id": "wp_03_01",
                                "name": "ZAW-S08 Habakiri",
                                "droprate": 20.0
                            },
                            "pylon_l": {
                                "id": "wp_03_01_a",
                                "name": "ZAW-S09 Murakumo",
                                "droprate": 20.0
                            },
                            "weapon_r": {
                                "id": "wp_03_01",
                                "name": "ZAW-S08 Habakiri",
                                "droprate": 20.0
                            },
                            "pylon_r": {
                                "id": "wp_03_01_a",
                                "name": "ZAW-S09 Murakumo",
                                "droprate": 20.0
                            },
                            "shoulder": {
                                "id": "None",
                                "name": "None",
                                "droprate": 0.0
                            },
                            "support": {
                                "id": "None",
                                "name": "None",
                                "droprate": 0.0
                            }
                        }
                    }
                ]
            },
            "bosses": []
        },
        {
            "id": "Mission_0201_04",
            "title": "Guard the Escape Vehicle",
            "subtitle": "02-0206: Wasteland Wolf",
            "client": "Horizon",
            "summary": "Immortals have invaded Horizon's territory, and an important individual needs to be safely escorted out of the area.",
            "area": "Gnomenatos Factory",
            "goals": [
                {
                    "text": "Guard the vehicle.",
                    "reward": 4000
                },
                {
                    "text": "Remaining VP Above 80%",
                    "reward": 2100
                }
            ],
            "failures": [
                {
                    "text": "Vehicle destroyed."
                }
            ],
            "enemies": [
                {
                    "id": "NPC_Basic_010",
                    "name": "Strai",
                    "outer": "None",
                    "parts": {
                        "head": {
                            "id": "AS_Head_005",
                            "name": "SAP-LS-H01 Long Sword",
                            "droprate": 25.0
                        },
                        "body": {
                            "id": "AS_Body_006",
                            "name": "HAP-GL-C01 Goliath",
                            "droprate": 10.0
                        },
                        "arm_l": {
                            "id": "AS_Arm_L_005",
                            "name": "SAP-LS-L01 Long Sword",
                            "droprate": 10.0
                        },
                        "arm_r": {
                            "id": "AS_Arm_R_005",
                            "name": "SAP-LS-R01 Long Sword",
                            "droprate": 25.0
                        },
                        "legs": {
                            "id": "AS_Legs_003",
                            "name": "ZAP-OF-B02 Osafune",
                            "droprate": 25.0
                        }
                    },
                    "weapons": {
                        "weapon_l": {
                            "id": "wp_00_00",
                            "name": "HAW-R01 Grim Reaper",
                            "droprate": 35.0
                        },
                        "pylon_l": {
                            "id": "None",
                            "name": "None",
                            "droprate": 0.0
                        },
                        "weapon_r": {
                            "id": "wp_03_00",
                            "name": "HAW-BL01 Buster Doom",
                            "droprate": 35.0
                        },
                        "pylon_r": {
                            "id": "None",
                            "name": "None",
                            "droprate": 0.0
                        },
                        "shoulder": {
                            "id": "None",
                            "name": "None",
                            "droprate": 0.0
                        },
                        "support": {
                            "id": "wp_16_08",
                            "name": "HAW-RM03 Reserve Magazine",
                            "droprate": 35.0
                        }
                    }
                },
                {
                    "id": "NPC_Basic_084",
                    "name": "Strai",
                    "outer": "None",
                    "parts": {
                        "head": {
                            "id": "AS_Head_005",
                            "name": "SAP-LS-H01 Long Sword",
                            "droprate": 25.0
                        },
                        "body": {
                            "id": "AS_Body_100",
                            "name": "HAP-RG-C01 Legion",
                            "droprate": 25.0
                        },
                        "arm_l": {
                            "id": "AS_Arm_L_100",
                            "name": "HAP-RG-L01 Legion",
                            "droprate": 25.0
                        },
                        "arm_r": {
                            "id": "AS_Arm_R_005",
                            "name": "SAP-LS-R01 Long Sword",
                            "droprate": 25.0
                        },
                        "legs": {
                            "id": "AS_Legs_020",
                            "name": "ZAP-KK-B31 Kazekiri",
                            "droprate": 25.0
                        }
                    },
                    "weapons": {
                        "weapon_l": {
                            "id": "wp_00_01",
                            "name": "HAW-M01 Silver Raven",
                            "droprate": 35.0
                        },
                        "pylon_l": {
                            "id": "None",
                            "name": "None",
                            "droprate": 0.0
                        },
                        "weapon_r": {
                            "id": "wp_00_03_a",
                            "name": "HAW-SR12 Punishment",
                            "droprate": 35.0
                        },
                        "pylon_r": {
                            "id": "None",
                            "name": "None",
                            "droprate": 0.0
                        },
                        "shoulder": {
                            "id": "wp_09_06",
                            "name": "SAW-HM31 Garuda",
                            "droprate": 35.0
                        },
                        "support": {
                            "id": "wp_16_04",
                            "name": "HAW-CS09 Cooling System",
                            "droprate": 35.0
                        }
                    }
                }
            ],
            "allies": [],
            "partners": {
                "max": 2,
                "partners": [
                    {
                        "id": "NPC_Innocence_005",
                        "name": "Ogre Epsilon",
                        "outer": "Chill",
                        "rate": 45.0
                    },
                    {
                        "id": "NPC_Barrett_005",
                        "name": "Grand Totem",
                        "outer": "Falcon",
                        "rate": 45.0
                    },
                    {
                        "id": "NPC_Barrett_007",
                        "name": "Anaconda",
                        "outer": "Drake",
                        "rate": 35.0
                    }
                ]
            },
            "encounters": {
                "rate": 40.0,
                "arsenals": [
                    {
                        "id": "NPC_Tellers_003",
                        "name": "Eleos",
                        "outer": "Gloom",
                        "rate": 5.0,
                        "parts": {
                            "head": {
                                "id": "AS_Head_006",
                                "name": "HAP-GL-H01 Goliath",
                                "droprate": 20.0
                            },
                            "body": {
                                "id": "AS_Body_006",
                                "name": "HAP-GL-C01 Goliath",
                                "droprate": 20.0
                            },
                            "arm_l": {
                                "id": "AS_Arm_L_001",
                                "name": "SAP-HB-L01 Halberd",
                                "droprate": 20.0
                            },
                            "arm_r": {
                                "id": "AS_Arm_R_001",
                                "name": "SAP-HB-R01 Halberd",
                                "droprate": 20.0
                            },
                            "legs": {
                                "id": "AS_Legs_018",
                                "name": "HAP-FD-B01 Fluoresce Dominion",
                                "droprate": 20.0
                            }
                        },
                        "weapons": {
                            "weapon_l": {
                                "id": "wp_01_00",
                                "name": "SAW-L22 Agni Flame",
                                "droprate": 20.0
                            },
                            "pylon_l": {
                                "id": "wp_00_02_a",
                                "name": "HAW-SH01 Azrael",
                                "droprate": 20.0
                            },
                            "weapon_r": {
                                "id": "wp_00_01",
                                "name": "HAW-M01 Silver Raven",
                                "droprate": 20.0
                            },
                            "pylon_r": {
                                "id": "wp_03_00",
                                "name": "HAW-BL01 Buster Doom",
                                "droprate": 20.0
                            },
                            "shoulder": {
                                "id": "wp_11_02",
                                "name": "SAW-CLC01 Agneyastra",
                                "droprate": 20.0
                            },
                            "support": {
                                "id": "wp_16_00",
                                "name": "HAW-CF22 Chaff Flare",
                                "droprate": 20.0
                            }
                        }
                    },
                    {
                        "id": "NPC_Tellers_003_Mi5-05",
                        "name": "Eleos",
                        "outer": "Gloom",
                        "rate": 5.0,
                        "parts": {
                            "head": {
                                "id": "AS_Head_006",
                                "name": "HAP-GL-H01 Goliath",
                                "droprate": 20.0
                            },
                            "body": {
                                "id": "AS_Body_006",
                                "name": "HAP-GL-C01 Goliath",
                                "droprate": 20.0
                            },
                            "arm_l": {
                                "id": "AS_Arm_L_001",
                                "name": "SAP-HB-L01 Halberd",
                                "droprate": 20.0
                            },
                            "arm_r": {
                                "id": "AS_Arm_R_001",
                                "name": "SAP-HB-R01 Halberd",
                                "droprate": 20.0
                            },
                            "legs": {
                                "id": "AS_Legs_018",
                                "name": "HAP-FD-B01 Fluoresce Dominion",
                                "droprate": 20.0
                            }
                        },
                        "weapons": {
                            "weapon_l": {
                                "id": "wp_01_00_b",
                                "name": "ZAW-L01 Takemikazuchi",
                                "droprate": 20.0
                            },
                            "pylon_l": {
                                "id": "wp_00_02_a",
                                "name": "HAW-SH01 Azrael",
                                "droprate": 20.0
                            },
                            "weapon_r": {
                                "id": "wp_00_01_b",
                                "name": "HAW-M05 Silver Raven II",
                                "droprate": 20.0
                            },
                            "pylon_r": {
                                "id": "wp_03_00_a",
                                "name": "HAW-BL07 Noble Pride",
                                "droprate": 20.0
                            },
                            "shoulder": {
                                "id": "wp_11_02",
                                "name": "SAW-CLC01 Agneyastra",
                                "droprate": 20.0
                            },
                            "support": {
                                "id": "wp_16_00",
                                "name": "HAW-CF22 Chaff Flare",
                                "droprate": 20.0
                            }
                        }
                    }
                ]
            },
            "bosses": []
        },
        {
            "id": "Mission_0301_13",
            "title": "Destroy Gunfort",
            "subtitle": "02-0302: Grand Wall",
            "client": "Horizon",
            "summary": "A colossal Immortal has been detected in Horizon's territory. Eliminate it for battle data and sample collection.",
            "area": "Ruins of Aquafort",
            "goals": [
                {
                    "text": "Eliminate the colossal Immortal.",
                    "reward": 5000
                },
                {
                    "text": "Complete mission within 300 seconds.",
                    "reward": 700
                },
                {
                    "text": "Complete mission within 210 seconds.",
                    "reward": 900
                },
                {
                    "text": "Complete mission within 180 seconds.",
                    "reward": 1400
                }
            ],
            "failures": [],
            "enemies": [],
            "allies": [],
            "partners": {
                "max": 2,
                "partners": [
                    {
                        "id": "NPC_Innocence_005",
                        "name": "Ogre Epsilon",
                        "outer": "Chill",
                        "rate": 45.0
                    },
                    {
                        "id": "NPC_Panzer_003",
                        "name": "Winning Road",
                        "outer": "Crown Princess",
                        "rate": 45.0
                    },
                    {
                        "id": "NPC_Barrett_005",
                        "name": "Grand Totem",
                        "outer": "Falcon",
                        "rate": 45.0
                    },
                    {
                        "id": "NPC_Barrett_007",
                        "name": "Anaconda",
                        "outer": "Drake",
                        "rate": 35.0
                    }
                ]
            },
            "encounters": {
                "rate": 0.0,
                "arsenals": []
            },
            "bosses": [
                {
                    "id": "EN_BossTrts_01",
                    "name": "Gunfort",
                    "blueprints": [
                        {
                            "id": "FI_wp_71_00",
                            "name": "OAW-P14 Achilles",
                            "rate": 20.0
                        }
                    ],
                    "base_drops": [
                        {
                            "id": "Trts01_Base01",
                            "text": "Eliminated Gunfort",
                            "attachments": [
                                {
                                    "id": "wep_ori_bullet_revstg",
                                    "name": "Bullet: Performance Upgrade Mk I",
                                    "rate": 30.0
                                },
                                {
                                    "id": "wep_ori_bullet_revstg",
                                    "name": "Bullet: Performance Upgrade Mk II",
                                    "rate": 12.0
                                },
                                {
                                    "id": "wep_ori_bullet_revstg",
                                    "name": "Bullet: Performance Upgrade Mk III",
                                    "rate": 4.0
                                }
                            ]
                        }
                    ],
                    "weakpoint_drops": [
                        {
                            "id": "Trts01_Weak01",
                            "text": "Eliminated Gunfort (Bonus)",
                            "count": 8,
                            "attachments": [
                                {
                                    "id": "wep_ori_combat_revstg",
                                    "name": "Melee: Performance Upgrade Mk I",
                                    "rate": 8.0
                                },
                                {
                                    "id": "wep_ori_bullet_revstg",
                                    "name": "Bullet: Performance Upgrade Mk I",
                                    "rate": 25.0
                                },
                                {
                                    "id": "wep_ori_bullet_revstg",
                                    "name": "Bullet: Performance Upgrade Mk II",
                                    "rate": 8.0
                                },
                                {
                                    "id": "wep_ori_bullet_revstg",
                                    "name": "Bullet: Performance Upgrade Mk III",
                                    "rate": 2.5
                                }
                            ]
                        },
                        {
                            "id": "Trts01_Weak02",
                            "text": "Eliminated Gunfort (Bonus)",
                            "count": 4,
                            "attachments": [
                                {
                                    "id": "part_cmn_Resist_bullet",
                                    "name": "Armor: Bullet-Resistant Coating Mk I",
                                    "rate": 8.0
                                },
                                {
                                    "id": "wep_ori_bullet_revstg",
                                    "name": "Bullet: Performance Upgrade Mk I",
                                    "rate": 25.0
                                },
                                {
                                    "id": "wep_ori_bullet_revstg",
                                    "name": "Bullet: Performance Upgrade Mk II",
                                    "rate": 8.0
                                },
                                {
                                    "id": "wep_ori_bullet_revstg",
                                    "name": "Bullet: Performance Upgrade Mk III",
                                    "rate": 2.5
                                }
                            ]
                        }
                    ],
                    "unique_drops": []
                }
            ]
        },
        {
            "id": "Mission_1002_04",
            "title": "Investigate the Facility Depths",
            "subtitle": "02-0305: Nine Ball",
            "client": "Zen",
            "summary": "An entrance to unexplored depths has been discovered in a production facility held by corrupted AIs. Zen has requested an investigation into these depths.",
            "area": "Ace Linear",
            "goals": [
                {
                    "text": "Investigate the production facility.",
                    "reward": 9000
                },
                {
                    "text": "Complete mission within 150 seconds.",
                    "reward": 4600
                }
            ],
            "failures": [],
            "enemies": [
                {
                    "id": "NPC_Basic_016",
                    "name": "Strai",
                    "outer": "None",
                    "parts": {
                        "head": {
                            "id": "AS_Head_006",
                            "name": "HAP-GL-H01 Goliath",
                            "droprate": 25.0
                        },
                        "body": {
                            "id": "AS_Body_100",
                            "name": "HAP-RG-C01 Legion",
                            "droprate": 5.0
                        },
                        "arm_l": {
                            "id": "AS_Arm_L_900",
                            "name": "HPW-AR-L01 Gun Arm-AR",
                            "droprate": 25.0
                        },
                        "arm_r": {
                            "id": "AS_Arm_R_900",
                            "name": "HPW-AR-R01 Gun Arm-AR",
                            "droprate": 25.0
                        },
                        "legs": {
                            "id": "AS_Legs_020",
                            "name": "ZAP-KK-B31 Kazekiri",
                            "droprate": 5.0
                        }
                    },
                    "weapons": {
                        "weapon_l": {
                            "id": "None",
                            "name": "None",
                            "droprate": 0.0
                        },
                        "pylon_l": {
                            "id": "None",
                            "name": "None",
                            "droprate": 0.0
                        },
                        "weapon_r": {
                            "id": "None",
                            "name": "None",
                            "droprate": 0.0
                        },
                        "pylon_r": {
                            "id": "None",
                            "name": "None",
                            "droprate": 0.0
                        },
                        "shoulder": {
                            "id": "wp_21_00",
                            "name": "SAW-RP90 Splendor",
                            "droprate": 30.0
                        },
                        "support": {
                            "id": "None",
                            "name": "None",
                            "droprate": 0.0
                        }
                    }
                },
                {
                    "id": "NPC_Basic_085",
                    "name": "Strai",
                    "outer": "None",
                    "parts": {
                        "head": {
                            "id": "AS_Head_005",
                            "name": "SAP-LS-H01 Long Sword",
                            "droprate": 25.0
                        },
                        "body": {
                            "id": "AS_Body_005",
                            "name": "SAP-LS-C01 Long Sword",
                            "droprate": 25.0
                        },
                        "arm_l": {
                            "id": "AS_Arm_L_100",
                            "name": "HAP-RG-L01 Legion",
                            "droprate": 25.0
                        },
                        "arm_r": {
                            "id": "AS_Arm_R_900",
                            "name": "HPW-AR-R01 Gun Arm-AR",
                            "droprate": 25.0
                        },
                        "legs": {
                            "id": "AS_Legs_100",
                            "name": "HAP-RG-B01 Legion",
                            "droprate": 25.0
                        }
                    },
                    "weapons": {
                        "weapon_l": {
                            "id": "wp_03_01",
                            "name": "ZAW-S08 Habakiri",
                            "droprate": 70.0
                        },
                        "pylon_l": {
                            "id": "None",
                            "name": "None",
                            "droprate": 0.0
                        },
                        "weapon_r": {
                            "id": "None",
                            "name": "None",
                            "droprate": 0.0
                        },
                        "pylon_r": {
                            "id": "None",
                            "name": "None",
                            "droprate": 0.0
                        },
                        "shoulder": {
                            "id": "None",
                            "name": "None",
                            "droprate": 0.0
                        },
                        "support": {
                            "id": "None",
                            "name": "None",
                            "droprate": 0.0
                        }
                    }
                }
            ],
            "allies": [],
            "partners": {
                "max": 2,
                "partners": [
                    {
                        "id": "NPC_Barrett_004",
                        "name": "Wiseman's Dagger",
                        "outer": "Painkiller",
                        "rate": 45.0
                    },
                    {
                        "id": "NPC_Barrett_006",
                        "name": "Peacemaker",
                        "outer": "Johnny G",
                        "rate": 45.0
                    },
                    {
                        "id": "NPC_Barrett_008",
                        "name": "Fianchetto",
                        "outer": "Bishop",
                        "rate": 35.0
                    },
                    {
                        "id": "NPC_Panzer_003",
                        "name": "Winning Road",
                        "outer": "Crown Princess",
                        "rate": 45.0
                    },
                    {
                        "id": "NPC_West_007",
                        "name": "Ambivalence",
                        "outer": "Sif",
                        "rate": 45.0
                    },
                    {
                        "id": "NPC_Innocence_002",
                        "name": "Ogre Beta",
                        "outer": "Notes",
                        "rate": 45.0
                    },
                    {
                        "id": "NPC_Barrett_007",
                        "name": "Anaconda",
                        "outer": "Drake",
                        "rate": 35.0
                    },
                    {
                        "id": "NPC_West_004",
                        "name": "Faceless",
                        "outer": "Rouge Cinderella",
                        "rate": 35.0
                    },
                    {
                        "id": "NPC_Hell_003",
                        "name": "Ater",
                        "outer": "Abyss",
                        "rate": 35.0
                    }
                ]
            },
            "encounters": {
                "rate": 0.0,
                "arsenals": []
            },
            "bosses": []
        },
        {
            "id": "Mission_0401_06",
            "title": "Reclaim the City",
            "subtitle": "04-0306: Hat Trick",
            "client": "Sky Union",
            "summary": "Sky Union's territory has been overrun by corrupted AIs. Multiple heat signatures have been detected. Reclaim the area before the enemy can bolster their forces.",
            "area": "Grace City",
            "goals": [
                {
                    "text": "Eliminate the enemy AIs.",
                    "reward": 5000
                },
                {
                    "text": "Eliminate before reinforcements arrive.",
                    "reward": 2200
                }
            ],
            "failures": [],
            "enemies": [
                {
                    "id": "NPC_Basic_008",
                    "name": "Strai",
                    "outer": "None",
                    "parts": {
                        "head": {
                            "id": "AS_Head_003",
                            "name": "ZAP-OF-H02 Osafune",
                            "droprate": 25.0
                        },
                        "body": {
                            "id": "AS_Body_100",
                            "name": "HAP-RG-C01 Legion",
                            "droprate": 10.0
                        },
                        "arm_l": {
                            "id": "AS_Arm_L_100",
                            "name": "HAP-RG-L01 Legion",
                            "droprate": 10.0
                        },
                        "arm_r": {
                            "id": "AS_Arm_R_100",
                            "name": "HAP-RG-R01 Legion",
                            "droprate": 10.0
                        },
                        "legs": {
                            "id": "AS_Legs_100",
                            "name": "HAP-RG-B01 Legion",
                            "droprate": 10.0
                        }
                    },
                    "weapons": {
                        "weapon_l": {
                            "id": "wp_00_01",
                            "name": "HAW-M01 Silver Raven",
                            "droprate": 35.0
                        },
                        "pylon_l": {
                            "id": "None",
                            "name": "None",
                            "droprate": 0.0
                        },
                        "weapon_r": {
                            "id": "wp_00_00",
                            "name": "HAW-R01 Grim Reaper",
                            "droprate": 35.0
                        },
                        "pylon_r": {
                            "id": "None",
                            "name": "None",
                            "droprate": 0.0
                        },
                        "shoulder": {
                            "id": "None",
                            "name": "None",
                            "droprate": 0.0
                        },
                        "support": {
                            "id": "wp_16_05",
                            "name": "HAW-DB01 Down Booster",
                            "droprate": 60.0
                        }
                    }
                }
            ],
            "allies": [],
            "partners": {
                "max": 2,
                "partners": [
                    {
                        "id": "NPC_Barrett_005",
                        "name": "Grand Totem",
                        "outer": "Falcon",
                        "rate": 45.0
                    },
                    {
                        "id": "NPC_Innocence_001",
                        "name": "Ogre Alpha",
                        "outer": "Crow",
                        "rate": 35.0
                    },
                    {
                        "id": "NPC_Innocence_004",
                        "name": "Ogre Delta",
                        "outer": "Rigid",
                        "rate": 45.0
                    },
                    {
                        "id": "NPC_Innocence_005",
                        "name": "Ogre Epsilon",
                        "outer": "Chill",
                        "rate": 45.0
                    },
                    {
                        "id": "NPC_West_003",
                        "name": "Lionheart",
                        "outer": "Gargantua",
                        "rate": 35.0
                    },
                    {
                        "id": "NPC_Hell_004",
                        "name": "Albus",
                        "outer": "Heaven",
                        "rate": 45.0
                    }
                ]
            },
            "encounters": {
                "rate": 50.0,
                "arsenals": [
                    {
                        "id": "NPC_Barrett_004",
                        "name": "Wiseman's Dagger",
                        "outer": "Painkiller",
                        "rate": 15.0,
                        "parts": {
                            "head": {
                                "id": "AS_Head_004",
                                "name": "HAP-AT-H11 Atlas",
                                "droprate": 20.0
                            },
                            "body": {
                                "id": "AS_Body_006",
                                "name": "HAP-GL-C01 Goliath",
                                "droprate": 20.0
                            },
                            "arm_l": {
                                "id": "AS_Arm_L_900",
                                "name": "HPW-AR-L01 Gun Arm-AR",
                                "droprate": 20.0
                            },
                            "arm_r": {
                                "id": "AS_Arm_R_005",
                                "name": "SAP-LS-R01 Long Sword",
                                "droprate": 20.0
                            },
                            "legs": {
                                "id": "AS_Legs_006",
                                "name": "HAP-GL-B01 Goliath",
                                "droprate": 20.0
                            }
                        },
                        "weapons": {
                            "weapon_l": {
                                "id": "None",
                                "name": "None",
                                "droprate": 0.0
                            },
                            "pylon_l": {
                                "id": "None",
                                "name": "None",
                                "droprate": 0.0
                            },
                            "weapon_r": {
                                "id": "wp_00_03",
                                "name": "SAW-SR51 Failnaught",
                                "droprate": 20.0
                            },
                            "pylon_r": {
                                "id": "None",
                                "name": "None",
                                "droprate": 0.0
                            },
                            "shoulder": {
                                "id": "wp_09_00",
                                "name": "SAW-AM02 Thunderbird",
                                "droprate": 20.0
                            },
                            "support": {
                                "id": "None",
                                "name": "None",
                                "droprate": 0.0
                            }
                        }
                    },
                    {
                        "id": "NPC_Barrett_007",
                        "name": "Anaconda",
                        "outer": "Drake",
                        "rate": 15.0,
                        "parts": {
                            "head": {
                                "id": "AS_Head_007",
                                "name": "HAP-HC-H08 Hecatonchier",
                                "droprate": 20.0
                            },
                            "body": {
                                "id": "AS_Body_002",
                                "name": "SAP-CR-C01 Claymore",
                                "droprate": 20.0
                            },
                            "arm_l": {
                                "id": "AS_Arm_L_005",
                                "name": "SAP-LS-L01 Long Sword",
                                "droprate": 20.0
                            },
                            "arm_r": {
                                "id": "AS_Arm_R_005",
                                "name": "SAP-LS-R01 Long Sword",
                                "droprate": 20.0
                            },
                            "legs": {
                                "id": "AS_Legs_007",
                                "name": "HAP-HC-B08 Hecatonchier",
                                "droprate": 20.0
                            }
                        },
                        "weapons": {
                            "weapon_l": {
                                "id": "wp_00_04",
                                "name": "SAW-B17 Gillingr Impact",
                                "droprate": 20.0
                            },
                            "pylon_l": {
                                "id": "None",
                                "name": "None",
                                "droprate": 0.0
                            },
                            "weapon_r": {
                                "id": "wp_03_01",
                                "name": "ZAW-S08 Habakiri",
                                "droprate": 20.0
                            },
                            "pylon_r": {
                                "id": "None",
                                "name": "None",
                                "droprate": 0.0
                            },
                            "shoulder": {
                                "id": "wp_10_00",
                                "name": "HAW-C03 Ogre Break",
                                "droprate": 20.0
                            },
                            "support": {
                                "id": "wp_12_00",
                                "name": "HAW-GR01 Hand Grenade",
                                "droprate": 20.0
                            }
                        }
                    },
                    {
                        "id": "NPC_Barrett_008",
                        "name": "Fianchetto",
                        "outer": "Bishop",
                        "rate": 60.0,
                        "parts": {
                            "head": {
                                "id": "AS_Head_019",
                                "name": "ZAP-MS-H09 Musou",
                                "droprate": 20.0
                            },
                            "body": {
                                "id": "AS_Body_018",
                                "name": "HAP-FD-C01 Fluoresce Dominion",
                                "droprate": 20.0
                            },
                            "arm_l": {
                                "id": "AS_Arm_L_014",
                                "name": "SAP-ST-L01 Stiletto",
                                "droprate": 20.0
                            },
                            "arm_r": {
                                "id": "AS_Arm_R_014",
                                "name": "SAP-ST-R01 Stiletto",
                                "droprate": 20.0
                            },
                            "legs": {
                                "id": "AS_Legs_100",
                                "name": "HAP-RG-B01 Legion",
                                "droprate": 20.0
                            }
                        },
                        "weapons": {
                            "weapon_l": {
                                "id": "wp_07_00_b",
                                "name": "HAW-P03 Sacred Moon",
                                "droprate": 20.0
                            },
                            "pylon_l": {
                                "id": "None",
                                "name": "None",
                                "droprate": 0.0
                            },
                            "weapon_r": {
                                "id": "wp_02_00",
                                "name": "SAW-A08 Tempest",
                                "droprate": 20.0
                            },
                            "pylon_r": {
                                "id": "None",
                                "name": "None",
                                "droprate": 0.0
                            },
                            "shoulder": {
                                "id": "None",
                                "name": "None",
                                "droprate": 0.0
                            },
                            "support": {
                                "id": "None",
                                "name": "None",
                                "droprate": 0.0
                            }
                        }
                    },
                    {
                        "id": "NPC_Tellers_003",
                        "name": "Eleos",
                        "outer": "Gloom",
                        "rate": 5.0,
                        "parts": {
                            "head": {
                                "id": "AS_Head_006",
                                "name": "HAP-GL-H01 Goliath",
                                "droprate": 20.0
                            },
                            "body": {
                                "id": "AS_Body_006",
                                "name": "HAP-GL-C01 Goliath",
                                "droprate": 20.0
                            },
                            "arm_l": {
                                "id": "AS_Arm_L_001",
                                "name": "SAP-HB-L01 Halberd",
                                "droprate": 20.0
                            },
                            "arm_r": {
                                "id": "AS_Arm_R_001",
                                "name": "SAP-HB-R01 Halberd",
                                "droprate": 20.0
                            },
                            "legs": {
                                "id": "AS_Legs_018",
                                "name": "HAP-FD-B01 Fluoresce Dominion",
                                "droprate": 20.0
                            }
                        },
                        "weapons": {
                            "weapon_l": {
                                "id": "wp_01_00",
                                "name": "SAW-L22 Agni Flame",
                                "droprate": 20.0
                            },
                            "pylon_l": {
                                "id": "wp_00_02_a",
                                "name": "HAW-SH01 Azrael",
                                "droprate": 20.0
                            },
                            "weapon_r": {
                                "id": "wp_00_01",
                                "name": "HAW-M01 Silver Raven",
                                "droprate": 20.0
                            },
                            "pylon_r": {
                                "id": "wp_03_00",
                                "name": "HAW-BL01 Buster Doom",
                                "droprate": 20.0
                            },
                            "shoulder": {
                                "id": "wp_11_02",
                                "name": "SAW-CLC01 Agneyastra",
                                "droprate": 20.0
                            },
                            "support": {
                                "id": "wp_16_00",
                                "name": "HAW-CF22 Chaff Flare",
                                "droprate": 20.0
                            }
                        }
                    },
                    {
                        "id": "NPC_Tellers_003_Mi5-05",
                        "name": "Eleos",
                        "outer": "Gloom",
                        "rate": 5.0,
                        "parts": {
                            "head": {
                                "id": "AS_Head_006",
                                "name": "HAP-GL-H01 Goliath",
                                "droprate": 20.0
                            },
                            "body": {
                                "id": "AS_Body_006",
                                "name": "HAP-GL-C01 Goliath",
                                "droprate": 20.0
                            },
                            "arm_l": {
                                "id": "AS_Arm_L_001",
                                "name": "SAP-HB-L01 Halberd",
                                "droprate": 20.0
                            },
                            "arm_r": {
                                "id": "AS_Arm_R_001",
                                "name": "SAP-HB-R01 Halberd",
                                "droprate": 20.0
                            },
                            "legs": {
                                "id": "AS_Legs_018",
                                "name": "HAP-FD-B01 Fluoresce Dominion",
                                "droprate": 20.0
                            }
                        },
                        "weapons": {
                            "weapon_l": {
                                "id": "wp_01_00_b",
                                "name": "ZAW-L01 Takemikazuchi",
                                "droprate": 20.0
                            },
                            "pylon_l": {
                                "id": "wp_00_02_a",
                                "name": "HAW-SH01 Azrael",
                                "droprate": 20.0
                            },
                            "weapon_r": {
                                "id": "wp_00_01_b",
                                "name": "HAW-M05 Silver Raven II",
                                "droprate": 20.0
                            },
                            "pylon_r": {
                                "id": "wp_03_00_a",
                                "name": "HAW-BL07 Noble Pride",
                                "droprate": 20.0
                            },
                            "shoulder": {
                                "id": "wp_11_02",
                                "name": "SAW-CLC01 Agneyastra",
                                "droprate": 20.0
                            },
                            "support": {
                                "id": "wp_16_00",
                                "name": "HAW-CF22 Chaff Flare",
                                "droprate": 20.0
                            }
                        }
                    },
                    {
                        "id": "NPC_Panzer_003",
                        "name": "Winning Road",
                        "outer": "Crown Princess",
                        "rate": 60.0,
                        "parts": {
                            "head": {
                                "id": "AS_Head_007",
                                "name": "HAP-HC-H08 Hecatonchier",
                                "droprate": 20.0
                            },
                            "body": {
                                "id": "AS_Body_009",
                                "name": "SAP-FB-C03 Flamberge",
                                "droprate": 20.0
                            },
                            "arm_l": {
                                "id": "AS_Arm_L_003",
                                "name": "ZAP-OF-L02 Osafune",
                                "droprate": 20.0
                            },
                            "arm_r": {
                                "id": "AS_Arm_R_003",
                                "name": "ZAP-OF-R02 Osafune",
                                "droprate": 20.0
                            },
                            "legs": {
                                "id": "AS_Legs_009",
                                "name": "SAP-FB-B03 Flamberge",
                                "droprate": 20.0
                            }
                        },
                        "weapons": {
                            "weapon_l": {
                                "id": "wp_01_01",
                                "name": "HAW-CL07 Ugly Envy",
                                "droprate": 20.0
                            },
                            "pylon_l": {
                                "id": "wp_00_05",
                                "name": "HAW-H05 Trickster",
                                "droprate": 20.0
                            },
                            "weapon_r": {
                                "id": "wp_00_03",
                                "name": "SAW-SR51 Failnaught",
                                "droprate": 20.0
                            },
                            "pylon_r": {
                                "id": "None",
                                "name": "None",
                                "droprate": 0.0
                            },
                            "shoulder": {
                                "id": "wp_13_00",
                                "name": "HAW-BL07 Graceful Lust",
                                "droprate": 20.0
                            },
                            "support": {
                                "id": "wp_16_02",
                                "name": "ZAW-RJ04 Radar Jammer",
                                "droprate": 20.0
                            }
                        }
                    },
                    {
                        "id": "NPC_Panzer_003_Mi6-07",
                        "name": "Winning Road",
                        "outer": "Crown Princess",
                        "rate": 60.0,
                        "parts": {
                            "head": {
                                "id": "AS_Head_007",
                                "name": "HAP-HC-H08 Hecatonchier",
                                "droprate": 20.0
                            },
                            "body": {
                                "id": "AS_Body_009",
                                "name": "SAP-FB-C03 Flamberge",
                                "droprate": 20.0
                            },
                            "arm_l": {
                                "id": "AS_Arm_L_003",
                                "name": "ZAP-OF-L02 Osafune",
                                "droprate": 20.0
                            },
                            "arm_r": {
                                "id": "AS_Arm_R_003",
                                "name": "ZAP-OF-R02 Osafune",
                                "droprate": 20.0
                            },
                            "legs": {
                                "id": "AS_Legs_009",
                                "name": "SAP-FB-B03 Flamberge",
                                "droprate": 20.0
                            }
                        },
                        "weapons": {
                            "weapon_l": {
                                "id": "wp_01_01_a",
                                "name": "HAW-CL08 Salvation Ray",
                                "droprate": 20.0
                            },
                            "pylon_l": {
                                "id": "wp_00_05",
                                "name": "HAW-H05 Trickster",
                                "droprate": 20.0
                            },
                            "weapon_r": {
                                "id": "wp_00_03",
                                "name": "SAW-SR51 Failnaught",
                                "droprate": 20.0
                            },
                            "pylon_r": {
                                "id": "None",
                                "name": "None",
                                "droprate": 0.0
                            },
                            "shoulder": {
                                "id": "wp_13_01",
                                "name": "HAW-BL09 Dark Mantis",
                                "droprate": 20.0
                            },
                            "support": {
                                "id": "wp_16_02",
                                "name": "ZAW-RJ04 Radar Jammer",
                                "droprate": 20.0
                            }
                        }
                    },
                    {
                        "id": "NPC_West_004",
                        "name": "Faceless",
                        "outer": "Rouge Cinderella",
                        "rate": 60.0,
                        "parts": {
                            "head": {
                                "id": "AS_Head_022",
                                "name": "ZAP-ZM-H05 Izanami",
                                "droprate": 20.0
                            },
                            "body": {
                                "id": "AS_Body_003",
                                "name": "ZAP-OF-C02 Osafune",
                                "droprate": 20.0
                            },
                            "arm_l": {
                                "id": "AS_Arm_L_003",
                                "name": "ZAP-OF-L02 Osafune",
                                "droprate": 20.0
                            },
                            "arm_r": {
                                "id": "AS_Arm_R_003",
                                "name": "ZAP-OF-R02 Osafune",
                                "droprate": 20.0
                            },
                            "legs": {
                                "id": "AS_Legs_020",
                                "name": "ZAP-KK-B31 Kazekiri",
                                "droprate": 20.0
                            }
                        },
                        "weapons": {
                            "weapon_l": {
                                "id": "wp_06_00",
                                "name": "ZAW-AG08 Orochi",
                                "droprate": 20.0
                            },
                            "pylon_l": {
                                "id": "None",
                                "name": "None",
                                "droprate": 0.0
                            },
                            "weapon_r": {
                                "id": "wp_00_00",
                                "name": "HAW-R01 Grim Reaper",
                                "droprate": 20.0
                            },
                            "pylon_r": {
                                "id": "wp_03_01",
                                "name": "ZAW-S08 Habakiri",
                                "droprate": 20.0
                            },
                            "shoulder": {
                                "id": "None",
                                "name": "None",
                                "droprate": 0.0
                            },
                            "support": {
                                "id": "wp_14_00",
                                "name": "HAW-TM01 Trap Mine",
                                "droprate": 20.0
                            }
                        }
                    },
                    {
                        "id": "NPC_West_004_Mi7-10",
                        "name": "Faceless",
                        "outer": "Rouge Cinderella",
                        "rate": 60.0,
                        "parts": {
                            "head": {
                                "id": "AS_Head_022",
                                "name": "ZAP-ZM-H05 Izanami",
                                "droprate": 20.0
                            },
                            "body": {
                                "id": "AS_Body_003",
                                "name": "ZAP-OF-C02 Osafune",
                                "droprate": 20.0
                            },
                            "arm_l": {
                                "id": "AS_Arm_L_003",
                                "name": "ZAP-OF-L02 Osafune",
                                "droprate": 20.0
                            },
                            "arm_r": {
                                "id": "AS_Arm_R_003",
                                "name": "ZAP-OF-R02 Osafune",
                                "droprate": 20.0
                            },
                            "legs": {
                                "id": "AS_Legs_020",
                                "name": "ZAP-KK-B31 Kazekiri",
                                "droprate": 20.0
                            }
                        },
                        "weapons": {
                            "weapon_l": {
                                "id": "wp_06_00",
                                "name": "ZAW-AG08 Orochi",
                                "droprate": 20.0
                            },
                            "pylon_l": {
                                "id": "None",
                                "name": "None",
                                "droprate": 0.0
                            },
                            "weapon_r": {
                                "id": "wp_00_00_c",
                                "name": "HAW-R03 Grim Reaper III",
                                "droprate": 20.0
                            },
                            "pylon_r": {
                                "id": "wp_03_01",
                                "name": "ZAW-S08 Habakiri",
                                "droprate": 20.0
                            },
                            "shoulder": {
                                "id": "None",
                                "name": "None",
                                "droprate": 0.0
                            },
                            "support": {
                                "id": "wp_16_00",
                                "name": "HAW-CF22 Chaff Flare",
                                "droprate": 20.0
                            }
                        }
                    },
                    {
                        "id": "NPC_West_007",
                        "name": "Ambivalence",
                        "outer": "Sif",
                        "rate": 15.0,
                        "parts": {
                            "head": {
                                "id": "AS_Head_019",
                                "name": "ZAP-MS-H09 Musou",
                                "droprate": 20.0
                            },
                            "body": {
                                "id": "AS_Body_013",
                                "name": "SAP-SB-C01 Sword Breaker",
                                "droprate": 20.0
                            },
                            "arm_l": {
                                "id": "AS_Arm_L_002",
                                "name": "SAP-CR-L01 Claymore",
                                "droprate": 20.0
                            },
                            "arm_r": {
                                "id": "AS_Arm_R_002",
                                "name": "SAP-CR-R01 Claymore",
                                "droprate": 20.0
                            },
                            "legs": {
                                "id": "AS_Legs_005",
                                "name": "SAP-LS-B01 Long Sword",
                                "droprate": 20.0
                            }
                        },
                        "weapons": {
                            "weapon_l": {
                                "id": "wp_01_00",
                                "name": "SAW-L22 Agni Flame",
                                "droprate": 20.0
                            },
                            "pylon_l": {
                                "id": "wp_00_05",
                                "name": "HAW-H05 Trickster",
                                "droprate": 20.0
                            },
                            "weapon_r": {
                                "id": "wp_03_02",
                                "name": "HAW-MC07 Vargr Greed",
                                "droprate": 20.0
                            },
                            "pylon_r": {
                                "id": "wp_00_03",
                                "name": "SAW-SR51 Failnaught",
                                "droprate": 20.0
                            },
                            "shoulder": {
                                "id": "wp_11_01",
                                "name": "SAW-LC31 Gaia Ray",
                                "droprate": 20.0
                            },
                            "support": {
                                "id": "wp_16_06",
                                "name": "SAW-PT50 Propellant Tank",
                                "droprate": 20.0
                            }
                        }
                    }
                ]
            },
            "bosses": []
        },
        {
            "id": "Mission_0801_02",
            "title": "Colossal Immortal Test Data Collection",
            "subtitle": "08-0308: Storm Fox",
            "client": "Orbital",
            "summary": "The objective of this mission is to assist with a link test between Outers and colossal Immortals, and gather test data. Eliminate all enemies in the testing area while linked to a colossal Immortal.",
            "area": "Greenfall City Ruins",
            "goals": [
                {
                    "text": "Eliminate the enemy AIs.",
                    "reward": 12000
                },
                {
                    "text": "Complete mission within 240 seconds.",
                    "reward": 5400
                }
            ],
            "failures": [],
            "enemies": [],
            "allies": [
                {
                    "id": "NPC_Barrett_006",
                    "name": "Peacemaker",
                    "outer": "Johnny G"
                }
            ],
            "partners": {
                "max": 0,
                "partners": []
            },
            "encounters": {
                "rate": 0.0,
                "arsenals": []
            },
            "bosses": []
        },
        {
            "id": "Mission_0101_06",
            "title": "Destroy Nightmare",
            "subtitle": "01-0312: Elegant Hawk",
            "client": "Sky Union",
            "summary": "A colossal Immortal has been detected in Sky Union's territory. Eliminate it for battle data and sample collection.",
            "area": "Old Astram Ark",
            "goals": [
                {
                    "text": "Eliminate the colossal Immortal.",
                    "reward": 21000
                },
                {
                    "text": "Complete mission within 330 seconds.",
                    "reward": 3200
                },
                {
                    "text": "Complete mission within 240 seconds.",
                    "reward": 4600
                },
                {
                    "text": "Complete mission within 210 seconds.",
                    "reward": 6700
                }
            ],
            "failures": [],
            "enemies": [],
            "allies": [],
            "partners": {
                "max": 1,
                "partners": [
                    {
                        "id": "NPC_Barrett_006",
                        "name": "Peacemaker",
                        "outer": "Johnny G",
                        "rate": 45.0
                    },
                    {
                        "id": "NPC_Barrett_008",
                        "name": "Fianchetto",
                        "outer": "Bishop",
                        "rate": 45.0
                    },
                    {
                        "id": "NPC_West_002",
                        "name": "Deep Shadow",
                        "outer": "Nameless",
                        "rate": 45.0
                    },
                    {
                        "id": "NPC_West_003",
                        "name": "Lionheart",
                        "outer": "Gargantua",
                        "rate": 45.0
                    },
                    {
                        "id": "NPC_West_005",
                        "name": "Elder Hand",
                        "outer": "Klondike",
                        "rate": 45.0
                    },
                    {
                        "id": "NPC_Hell_003",
                        "name": "Ater",
                        "outer": "Abyss",
                        "rate": 45.0
                    },
                    {
                        "id": "NPC_Hell_004",
                        "name": "Albus",
                        "outer": "Heaven",
                        "rate": 45.0
                    },
                    {
                        "id": "NPC_Steelknight_001",
                        "name": "Paladin",
                        "outer": "Deva",
                        "rate": 45.0
                    },
                    {
                        "id": "NPC_Innocence_002",
                        "name": "Ogre Beta",
                        "outer": "Notes",
                        "rate": 45.0
                    }
                ]
            },
            "encounters": {
                "rate": 0.0,
                "arsenals": []
            },
            "bosses": [
                {
                    "id": "EN_BossFery_01",
                    "name": "Nightmare",
                    "blueprints": [
                        {
                            "id": "FI_wp_53_00",
                            "name": "OAW-DB31 Down Storm",
                            "rate": 20.0
                        }
                    ],
                    "base_drops": [
                        {
                            "id": "Fery01_Base01",
                            "text": "Eliminated Nightmare",
                            "attachments": [
                                {
                                    "id": "wep_ori_shield_resistlaser",
                                    "name": "Shield: Laser-Resistant Panel Mk I",
                                    "rate": 30.0
                                },
                                {
                                    "id": "wep_ori_shield_resistlaser",
                                    "name": "Shield: Laser-Resistant Panel Mk II",
                                    "rate": 12.0
                                },
                                {
                                    "id": "wep_ori_shield_resistlaser",
                                    "name": "Shield: Laser-Resistant Panel Mk III",
                                    "rate": 4.0
                                }
                            ]
                        }
                    ],
                    "weakpoint_drops": [
                        {
                            "id": "Fery01_Weak01",
                            "text": "Eliminated Nightmare (Bonus)",
                            "count": 8,
                            "attachments": [
                                {
                                    "id": "wep_ori_combat_revstg",
                                    "name": "Melee: Performance Upgrade Mk I",
                                    "rate": 8.0
                                },
                                {
                                    "id": "part_cmn_Resist_laser",
                                    "name": "Armor: Laser-Resistant Coating Mk I",
                                    "rate": 8.0
                                },
                                {
                                    "id": "wep_ori_shield_resistlaser",
                                    "name": "Shield: Laser-Resistant Panel Mk I",
                                    "rate": 25.0
                                },
                                {
                                    "id": "wep_ori_shield_resistlaser",
                                    "name": "Shield: Laser-Resistant Panel Mk II",
                                    "rate": 8.0
                                },
                                {
                                    "id": "wep_ori_shield_resistlaser",
                                    "name": "Shield: Laser-Resistant Panel Mk III",
                                    "rate": 2.5
                                }
                            ]
                        }
                    ],
                    "unique_drops": [
                        {
                            "value": 6.0,
                            "drops": {
                                "id": "Fery01_Uniq01",
                                "text": "Nightmare Special (Bonus)",
                                "attachments": [
                                    {
                                        "id": "wep_ori_shield_resistlaser",
                                        "name": "Shield: Laser-Resistant Panel Mk I",
                                        "rate": 20.0
                                    },
                                    {
                                        "id": "wep_ori_shield_resistlaser",
                                        "name": "Shield: Laser-Resistant Panel Mk II",
                                        "rate": 10.0
                                    }
                                ]
                            }
                        },
                        {
                            "value": 12.0,
                            "drops": {
                                "id": "Fery01_Uniq02",
                                "text": "Nightmare Special (Bonus)",
                                "attachments": [
                                    {
                                        "id": "wep_ori_shield_resistlaser",
                                        "name": "Shield: Laser-Resistant Panel Mk I",
                                        "rate": 15.0
                                    },
                                    {
                                        "id": "wep_ori_shield_resistlaser",
                                        "name": "Shield: Laser-Resistant Panel Mk II",
                                        "rate": 7.5
                                    }
                                ]
                            }
                        },
                        {
                            "value": 18.0,
                            "drops": {
                                "id": "Fery01_Uniq02",
                                "text": "Nightmare Special (Bonus)",
                                "attachments": [
                                    {
                                        "id": "wep_ori_shield_resistlaser",
                                        "name": "Shield: Laser-Resistant Panel Mk I",
                                        "rate": 15.0
                                    },
                                    {
                                        "id": "wep_ori_shield_resistlaser",
                                        "name": "Shield: Laser-Resistant Panel Mk II",
                                        "rate": 7.5
                                    }
                                ]
                            }
                        }
                    ]
                }
            ]
        }
    ]
}